Case #1: 7 1
Case #2: 9 2
Case #3: 0 0
Case #4: 10 10
Case #5: 8 4
Case #6: 9 7
Case #7: 1 0
Case #8: 0 0
Case #9: 1 1
Case #10: 8 3
Case #11: 5 1
Case #12: 0 0
Case #13: 1 1
Case #14: 3 3
Case #15: 1 1
Case #16: 9 4
Case #17: 1 1
Case #18: 7 2
Case #19: 8 3
Case #20: 5 4
Case #21: 5 5
Case #22: 6 2
Case #23: 8 2
Case #24: 0 0
Case #25: 2 1
Case #26: 10 10
Case #27: 8 1
Case #28: 7 3
Case #29: 9 2
Case #30: 9 5
Case #31: 1 1
Case #32: 4 2
Case #33: 9 3
Case #34: 3 1
Case #35: 3 2
Case #36: 7 4
Case #37: 6 1
Case #38: 5 1
Case #39: 8 3
Case #40: 9 3
Case #41: 7 2
Case #42: 9 4
Case #43: 5 0
Case #44: 0 0
Case #45: 1 0
Case #46: 5 1
Case #47: 10 10
Case #48: 0 0
Case #49: 1 0
Case #50: 0 0
